Predicting Health Conditions in Adults over 50 with Family Structure – Jose
…
dim(PhysTibble)

[1] 2000    7

As it can be seen above, we were able to filter for complete cases across all variables with more than enough samples left over. We then sampled the complete cases tibble for 2000 cases to meet the specifications. Originally we made two separate tibbles for our Linear and Logistic Regression. Although this would work, we have more than enough complete cases to study the the same sample of people for both models. This might be interesting considering both models use the same inputs to predict a physical health outcome, so we decided on a combined tibble containing both outcomes.

4 The Tidy Tibble

4.1 Listing the Tibble

Code
PhysTibble

# A tibble: 2,000 × 7
   hhid   marital   new_gchild num_gchild num_child   sbp diabetes
   <chr>  <fct>     <fct>           <dbl>     <dbl> <dbl> <fct>   
 1 050380 Widowed   No                  5         2   153 Yes     
 2 501961 Married   No                 16         0   107 Yes     
 3 543841 Seperated Yes                21         2   164 No      
 4 014092 Widowed   No                  4         3   154 No      
 5 022335 Widowed   No                  9         3   137 No      
 6 537264 Married   Yes                 6         1   142 No      
 7 903224 Seperated No                  9         1   136 Yes     
 8 500094 Married   No                  4         2   153 No      
 9 062157 Widowed   No                 10         1   133 No      
10 077723 Widowed   No                  5         3   142 No      
# ℹ 1,990 more rows
…
